Division,WeightClassKg,Place,Name,Team,BodyweightKg,Best3SquatKg,Best3BenchKg,Best3DeadliftKg,TotalKg,Equipment,Event,Sex
Boys,52,1,Bradley Salinas,Brownsville Porter,51.66,129.27,79.38,149.69,358.34,Single-ply,SBD,M
Boys,52,2,Ben Garcia,Los Fresnos,51.35,106.59,72.57,129.27,308.44,Single-ply,SBD,M
Boys,52,3,Eddy Lopez,Brownsville Hanna,51.53,102.06,61.23,142.88,306.17,Single-ply,SBD,M
Boys,56,1,Joel Sanchez,Brownsville Veterans Memorial,55.34,181.44,99.79,197.31,478.54,Single-ply,SBD,M
Boys,56,2,Eric Capistran,Brownsville Veterans Memorial,54.52,124.74,79.38,138.35,342.46,Single-ply,SBD,M
Boys,56,3,Johnathan Gracia,Brownsville Porter,55.16,97.52,52.16,127.01,276.69,Single-ply,SBD,M
Boys,56,4,Christian Medina,Brownsville Hanna,55.43,95.25,49.9,113.4,258.55,Single-ply,SBD,M
Boys,60,1,Jorge Banda,Brownsville Porter,58.33,133.81,104.33,163.29,401.43,Single-ply,SBD,M
Boys,60,2,Andy Acuna,Brownsville Hanna,58.06,138.35,86.18,149.69,374.21,Single-ply,SBD,M
Boys,60,3,Kevin Rodriguez,Brownsville Hanna,58.42,83.91,47.63,102.06,233.6,Single-ply,SBD,M
Boys,67.5,1,Guillermo Estra,Brownsville Porter,65.5,174.63,120.2,190.51,485.34,Single-ply,SBD,M
Boys,67.5,2,Adrian Guerrero,Brownsville Porter,63.55,138.35,81.65,163.29,383.29,Single-ply,SBD,M
Boys,67.5,3,Juan Zamora,Brownsville Porter,63.41,129.27,81.65,156.49,367.41,Single-ply,SBD,M
Boys,67.5,4,Diego Garza,Brownsville Veterans Memorial,62.96,115.67,70.31,115.67,301.64,Single-ply,SBD,M
Boys,67.5,5,Victor Rangel,Brownsville Hanna,66.77,108.86,52.16,120.2,281.23,Single-ply,SBD,M
Boys,67.5,DQ,Mario Marin,Brownsville Hanna,61.51,151.95,,,,Single-ply,SBD,M
Boys,75,1,John Salazar,Los Fresnos,73.39,206.38,131.54,233.6,571.53,Single-ply,SBD,M
Boys,75,2,Ricardo Miranda,Los Fresnos,74.84,195.04,122.47,235.87,553.38,Single-ply,SBD,M
Boys,75,3,John Acuna,Brownsville Porter,74.66,204.12,122.47,199.58,526.17,Single-ply,SBD,M
Boys,75,4,Gilbert Alejos,Los Fresnos,74.57,176.9,129.27,206.38,512.56,Single-ply,SBD,M
Boys,75,5,Luis Cisneros,Brownsville Rivera,74.84,142.88,129.27,170.1,442.25,Single-ply,SBD,M
Boys,75,6,Joey Gonzalez,Brownsville Hanna,73.75,165.56,92.99,170.1,428.64,Single-ply,SBD,M
Boys,75,7,Rafael Cuellar,Brownsville Porter,69.31,138.35,92.99,163.29,394.63,Single-ply,SBD,M
Boys,75,8,Zachary Williams,Brownsville Hanna,74.3,111.13,43.09,127.01,281.23,Single-ply,SBD,M
Boys,75,DQ,Israel Lozano,Brownsville Rivera,73.75,192.78,92.99,,,Single-ply,SBD,M
Boys,75,DQ,Jesus Muniz,Brownsville Rivera,74.84,183.7,106.59,,,Single-ply,SBD,M
Boys,82.5,1,Gio Martinez,Brownsville Porter,81.37,231.33,156.49,260.82,648.64,Single-ply,SBD,M
Boys,82.5,2,Daniel Arguelles,Brownsville Hanna,80.47,170.1,102.06,161.03,433.18,Single-ply,SBD,M
Boys,82.5,3,Abel Perez,Brownsville Rivera,75.48,147.42,83.91,176.9,408.23,Single-ply,SBD,M
Boys,82.5,4,Leo Hinojosa,Brownsville Porter,79.29,147.42,86.18,165.56,399.16,Single-ply,SBD,M
Boys,82.5,5,Brandon Bautista,Brownsville Hanna,77.02,136.08,86.18,167.83,390.09,Single-ply,SBD,M
Boys,82.5,DQ,Mario Leal,Brownsville Porter,80.83,142.88,,,,Single-ply,SBD,M
Boys,90,1,Juan Garza,Los Fresnos,87.82,185.97,145.15,219.99,551.11,Single-ply,SBD,M
Boys,90,2,Daniel Valdez,Brownsville Porter,89.45,206.38,108.86,215.46,530.7,Single-ply,SBD,M
Boys,90,3,Mark Zamorano,Los Fresnos,88.18,183.7,129.27,165.56,478.54,Single-ply,SBD,M
Boys,90,4,Joseph Suarez,Brownsville Porter,89.27,167.83,108.86,183.7,460.4,Single-ply,SBD,M
Boys,90,5,Donavan Trevino,Brownsville Rivera,89.81,147.42,90.72,165.56,403.7,Single-ply,SBD,M
Boys,90,6,Andre Lozano,Brownsville Hanna,84.73,149.69,92.99,156.49,399.16,Single-ply,SBD,M
Boys,90,7,Marco Garcia,Brownsville Rivera,84.37,235.87,117.93,,353.8,Single-ply,SB,M
Boys,90,8,Francisco Escobar,Brownsville Hanna,88.81,158.76,74.84,,233.6,Single-ply,SB,M
Boys,90,DQ,Jose Uribe,Brownsville Hanna,89.63,188.24,,,,Single-ply,SBD,M
Boys,90,DQ,Rey Salazar,Brownsville Veterans Memorial,89.63,188.24,,,,Single-ply,SBD,M
Boys,100,1,Nestor Ramirez,Brownsville Porter,99.79,208.65,117.93,170.1,496.68,Single-ply,SBD,M
Boys,110,1,Justin Ayala,Brownsville Veterans Memorial,99.97,206.38,92.99,215.46,514.83,Single-ply,SBD,M
Boys,110,2,Jose Raya,Brownsville Hanna,107.77,197.31,124.74,183.7,505.76,Single-ply,SBD,M
Boys,110,3,Jose Zapata,Brownsville Veterans Memorial,100.79,192.78,102.06,190.51,485.34,Single-ply,SBD,M
Boys,110,4,Misael Garcia,Brownsville Veterans Memorial,107.59,183.7,111.13,183.7,478.54,Single-ply,SBD,M
Boys,110,5,Jonathan De Los Reyes,Brownsville Hanna,109.77,183.7,104.33,174.63,462.66,Single-ply,SBD,M
Boys,110,6,Angel Pena,Brownsville Rivera,109.23,183.7,95.25,179.17,458.13,Single-ply,SBD,M
Boys,125,1,Justin Garza,Brownsville Rivera,122.47,294.84,124.74,224.53,644.1,Single-ply,SBD,M
Boys,125,2,Abiel Lopez,Brownsville Porter,121.02,213.19,136.08,167.83,517.1,Single-ply,SBD,M
Boys,125,3,Santos Troncoso,Brownsville Rivera,117.12,206.38,124.74,158.76,489.88,Single-ply,SBD,M
Boys,125,4,Vicente Correa,Brownsville Veterans Memorial,122.38,188.24,111.13,183.7,483.08,Single-ply,SBD,M
Boys,125,5,Anthony Martinez,Brownsville Rivera,120.29,147.42,111.13,156.49,415.04,Single-ply,SBD,M
Boys,125+,1,Alfredo Martinez Lara,Los Fresnos,134.63,335.66,213.19,235.87,784.71,Single-ply,SBD,M
Boys,125+,2,Javier Garcia,Brownsville Porter,133.45,208.65,129.27,188.24,526.17,Single-ply,SBD,M
Boys,125+,DQ,Juan Lopez,Brownsville Porter,135.17,,,,,Single-ply,SBD,M
