Division,WeightClassKg,Place,Name,Team,BodyweightKg,Best3SquatKg,Best3BenchKg,Best3DeadliftKg,TotalKg,Equipment,Event,Sex
Boys,52,1,Anthony Phimmasone,Fort Worth Boswell,50.55,113.4,58.97,124.74,297.1,Single-ply,SBD,M
Boys,52,2,Patrick Toy,Azle,51.44,61.23,52.16,104.33,217.72,Single-ply,SBD,M
Boys,56,1,Artavion Harrell,Azle,53.48,124.74,58.97,124.74,308.44,Single-ply,SBD,M
Boys,56,2,Marcus King,Fort Worth Boswell,54.88,97.52,49.9,138.35,285.76,Single-ply,SBD,M
Boys,56,3,Julian Castano,Fort Worth Boswell,54.61,97.52,49.9,115.67,263.08,Single-ply,SBD,M
Boys,60,1,Collin Bliggers,Fort Worth Boswell,59.87,133.81,81.65,129.27,344.73,Single-ply,SBD,M
Boys,60,2,Alonzo Owens,Fort Worth Boswell,59.78,138.35,68.04,120.2,326.59,Single-ply,SBD,M
Boys,60,DQ,Preston Whaley,Fort Worth Chisholm Trail,57.79,127.01,,138.35,,Single-ply,SBD,M
Boys,67.5,1,Garrett Wright,Fort Worth Boswell,64.77,181.44,97.52,172.37,451.32,Single-ply,SBD,M
Boys,67.5,2,Cameron Beagle,Fort Worth Boswell,66.77,142.88,90.72,181.44,415.04,Single-ply,SBD,M
Boys,67.5,3,Paul Eppright,Fort Worth Chisholm Trail,66.54,129.27,70.31,142.88,342.46,Single-ply,SBD,M
Boys,67.5,4,Chandler Reeves,Fort Worth Boswell,62.69,124.74,79.38,124.74,328.85,Single-ply,SBD,M
Boys,67.5,DQ,Melvin Johnson,Fort Worth Chisholm Trail,63,,,,,Single-ply,SBD,M
Boys,75,1,Tyson McDaniel,Fort Worth Chisholm Trail,74.84,185.97,113.4,192.78,492.15,Single-ply,SBD,M
Boys,75,2,Dominick Segoviano,Fort Worth Boswell,74.66,192.78,104.33,183.7,480.81,Single-ply,SBD,M
Boys,75,3,Jordan McNeely,Azle,71.76,181.44,111.13,185.97,478.54,Single-ply,SBD,M
Boys,75,4,Frank Chew,Fort Worth Chisholm Trail,74.53,158.76,83.91,183.7,426.38,Single-ply,SBD,M
Boys,75,5,Justin Edgin,Fort Worth Chisholm Trail,72.62,142.88,92.99,156.49,392.36,Single-ply,SBD,M
Boys,75,6,Hollan Morris,Fort Worth Boswell,74.66,124.74,70.31,124.74,319.78,Single-ply,SBD,M
Boys,75,7,Kirkland Schramm,Fort Worth Boswell,68.04,,63.5,124.74,188.24,Single-ply,BD,M
Boys,82.5,1,Justin Bratten,Fort Worth Boswell,80.47,204.12,117.93,208.65,530.7,Single-ply,SBD,M
Boys,82.5,2,Keyshawn Gbanqui,Fort Worth Chisholm Trail,80.33,174.63,113.4,192.78,480.81,Single-ply,SBD,M
Boys,82.5,3,Sam Rogers,Azle,81.6,179.17,102.06,172.37,453.59,Single-ply,SBD,M
Boys,82.5,4,Zade Smith,Azle,80.2,161.03,104.33,181.44,446.79,Single-ply,SBD,M
Boys,82.5,5,Maxwell Miller,Fort Worth Chisholm Trail,81.87,158.76,92.99,163.29,415.04,Single-ply,SBD,M
Boys,82.5,6,Gamble Moore,Azle,79.79,151.95,88.45,170.1,410.5,Single-ply,SBD,M
Boys,82.5,7,Dante Bushnell,Fort Worth Boswell,81.74,165.56,90.72,151.95,408.23,Single-ply,SBD,M
Boys,82.5,8,Richey Aregullin,Azle,81.47,158.76,95.25,151.95,405.97,Single-ply,SBD,M
Boys,82.5,DQ,Francisco Rivas,Fort Worth Chisholm Trail,81.24,,,,,Single-ply,SBD,M
Boys,82.5,DQ,Seth Ortega,Azle,81.83,,95.25,154.22,,Single-ply,SBD,M
Boys,90,1,Davion Jones,Azle,88.99,208.65,120.2,185.97,514.83,Single-ply,SBD,M
Boys,90,2,Jameel Mainor,Fort Worth Chisholm Trail,89.4,183.7,106.59,192.78,483.08,Single-ply,SBD,M
Boys,90,3,Will Humphreys,Fort Worth Boswell,89.81,172.37,99.79,161.03,433.18,Single-ply,SBD,M
Boys,90,4,Brodie Doherty,Azle,86.41,147.42,86.18,174.63,408.23,Single-ply,SBD,M
Boys,90,5,Blake Thornburg,Fort Worth Chisholm Trail,88.86,151.95,97.52,149.69,399.16,Single-ply,SBD,M
Boys,90,6,Hayden Hall,Fort Worth Boswell,86.64,145.15,86.18,158.76,390.09,Single-ply,SBD,M
Boys,100,1,Jaytron Phillips,Fort Worth Chisholm Trail,93.26,249.48,151.95,260.82,662.24,Single-ply,SBD,M
Boys,100,2,Derrick Mayweather,Fort Worth Chisholm Trail,97.57,172.37,142.88,233.6,548.85,Single-ply,SBD,M
Boys,100,3,Tyler Jensen,Azle,96.93,226.8,124.74,181.44,532.97,Single-ply,SBD,M
Boys,100,4,Travis Williams,Fort Worth Chisholm Trail,94.39,204.12,113.4,206.38,523.9,Single-ply,SBD,M
Boys,100,5,Ruben Perez,Azle,97.89,190.51,124.74,183.7,498.95,Single-ply,SBD,M
Boys,100,6,Kyrese McFarland,Fort Worth Boswell,96.52,195.04,106.59,181.44,483.08,Single-ply,SBD,M
Boys,100,7,Melieke Brown,Fort Worth Boswell,99.61,192.78,90.72,185.97,469.47,Single-ply,SBD,M
Boys,100,8,Trey Glasker,Fort Worth Chisholm Trail,93.03,147.42,88.45,167.83,403.7,Single-ply,SBD,M
Boys,110,1,Drew Smith,Azle,109.45,244.94,138.35,208.65,591.94,Single-ply,SBD,M
Boys,110,2,Flavio Castaneda,Fort Worth Chisholm Trail,107.27,183.7,92.99,188.24,464.93,Single-ply,SBD,M
Boys,110,3,Lathan Harris,Azle,102.74,197.31,81.65,176.9,455.86,Single-ply,SBD,M
Boys,125,1,Chase Slack,Azle,124.33,204.12,129.27,204.12,537.51,Single-ply,SBD,M
Boys,125,2,Andrew Lutz,Azle,116.26,215.46,129.27,183.7,528.44,Single-ply,SBD,M
Boys,125,3,Max Michaels,Fort Worth Boswell,116.12,204.12,122.47,192.78,519.36,Single-ply,SBD,M
Boys,125,4,Raylee Ramirez,Fort Worth Chisholm Trail,118.43,204.12,102.06,192.78,498.95,Single-ply,SBD,M
Boys,125,5,Drevon Maness,Azle,120.29,170.1,113.4,174.63,458.13,Single-ply,SBD,M
Boys,125,6,Louis LaMorte,Azle,124.33,165.56,111.13,158.76,435.45,Single-ply,SBD,M
Boys,125,7,Sebastian Ciglar,Fort Worth Boswell,114.76,163.29,95.25,167.83,426.38,Single-ply,SBD,M
Boys,125+,1,Jake Allsbrooks,Fort Worth Boswell,135.17,317.51,145.15,208.65,671.32,Single-ply,SBD,M
Boys,125+,2,Raylen Smith,Azle,140.8,226.8,113.4,165.56,505.76,Single-ply,SBD,M
Boys,125+,3,James Lochabay,Azle,128.55,192.78,111.13,195.04,498.95,Single-ply,SBD,M
Boys,125+,4,Joseph Olmos,Fort Worth Chisholm Trail,125.78,192.78,95.25,167.83,455.86,Single-ply,SBD,M
Boys,125+,5,Enrique Ledee,Fort Worth Boswell,126.01,199.58,77.11,165.56,442.25,Single-ply,SBD,M
