Division,WeightClassKg,Place,Name,Team,BodyweightKg,Best3SquatKg,Best3BenchKg,Best3DeadliftKg,TotalKg,Equipment,Event,Sex
Boys,60,1,Casey Fung,Iowa Park,59.87,131.54,88.45,145.15,365.14,Single-ply,SBD,M
Boys,60,2,Cesar Acosta,Decatur,58.29,129.27,90.72,138.35,358.34,Single-ply,SBD,M
Boys,67.5,1,Matthew Molina,Wichita Falls City View,66.9,102.06,65.77,140.61,308.44,Single-ply,SBD,M
Boys,67.5,2,Jon Nabors,Wichita Falls City View,64.41,108.86,65.77,127.01,301.64,Single-ply,SBD,M
Boys,67.5,3,Desmond Miller,Iowa Park,62.37,120.2,61.23,115.67,297.1,Single-ply,SBD,M
Boys,67.5,4,Jesus Lucio,Graham,60.78,113.4,68.04,113.4,294.84,Single-ply,SBD,M
Boys,67.5,5,Bobby Copeland,Wichita Falls City View,66.45,111.13,56.7,124.74,292.57,Single-ply,SBD,M
Boys,67.5,6,Spencer Vaughn,Wichita Falls City View,66.68,97.52,56.7,113.4,267.62,Single-ply,SBD,M
Boys,67.5,7,Austin Roysdon,Iowa Park,62.37,90.72,61.23,106.59,258.55,Single-ply,SBD,M
Boys,67.5,8,Jeb Curry,Graham,64.86,90.72,,,90.72,Single-ply,S,M
Boys,75,1,Jd Cravens,Iowa Park,71.44,142.88,81.65,163.29,387.82,Single-ply,SBD,M
Boys,75,2,Austin Phillips,Iowa Park,70.53,142.88,83.91,131.54,358.34,Single-ply,SBD,M
Boys,75,3,Chris Nabors,Wichita Falls City View,74.39,124.74,61.23,138.35,324.32,Single-ply,SBD,M
Boys,75,4,Gage Halvorson,Graham,69.63,113.4,72.57,124.74,310.71,Single-ply,SBD,M
Boys,82.5,1,Noah Elliott,Decatur,82.1,149.69,83.91,176.9,410.5,Single-ply,SBD,M
Boys,82.5,2,Nathan Selman,Decatur,81.42,156.49,92.99,151.95,401.43,Single-ply,SBD,M
Boys,82.5,3,Crafton Lindenborn,Wichita Falls City View,78.02,142.88,79.38,154.22,376.48,Single-ply,SBD,M
Boys,82.5,4,Chris Fernandez,Decatur,80.74,133.81,90.72,147.42,371.95,Single-ply,SBD,M
Boys,82.5,5,Dean Brotherson,Decatur,75.3,131.54,70.31,138.35,340.19,Single-ply,SBD,M
Boys,82.5,6,Seth Hakanson,Decatur,76.43,127.01,72.57,140.61,340.19,Single-ply,SBD,M
Boys,82.5,7,Jacob Camacho,Graham,79.61,90.72,83.91,122.47,297.1,Single-ply,SBD,M
Boys,82.5,8,Tristan Alewine,Wichita Falls City View,78.02,92.99,54.43,113.4,260.82,Single-ply,SBD,M
Boys,82.5,9,Jess Nelson,Wichita Falls City View,80.74,97.52,47.63,113.4,258.55,Single-ply,SBD,M
Boys,82.5,DQ,Gordo Renteria,Graham,82.1,113.4,,,,Single-ply,SBD,M
Boys,90,1,Joseph Aguilar,Graham,87.54,192.78,117.93,172.37,483.08,Single-ply,SBD,M
Boys,90,2,Cody Ellis,Decatur,83.01,136.08,79.38,174.63,390.09,Single-ply,SBD,M
Boys,90,3,Dillon Beasley,Iowa Park,85.5,149.69,81.65,138.35,369.68,Single-ply,SBD,M
Boys,90,4,Alex Nieto,Decatur,85.73,140.61,74.84,147.42,362.87,Single-ply,SBD,M
Boys,90,5,Brady Baird,Iowa Park,85.28,142.88,58.97,102.06,303.91,Single-ply,SBD,M
Boys,100,1,Colby Westbrook,Decatur,95.71,149.69,81.65,192.78,424.11,Single-ply,SBD,M
Boys,100,2,Daniel Pedigo,Iowa Park,94.12,161.03,102.06,142.88,405.97,Single-ply,SBD,M
Boys,100,3,Brandon Gibson,Iowa Park,93.21,154.22,95.25,147.42,396.89,Single-ply,SBD,M
Boys,100,4,Stephen Bynum,Graham,91.17,120.2,68.04,147.42,335.66,Single-ply,SBD,M
Boys,100,5,Hunter Green,Wichita Falls City View,98.2,83.91,56.7,117.93,258.55,Single-ply,SBD,M
Boys,110,1,James White,Decatur,102.29,158.76,83.91,195.04,437.72,Single-ply,SBD,M
Boys,110,2,Sebastian Gallegos,Graham,107.27,120.2,92.99,136.08,349.27,Single-ply,SBD,M
Boys,110,3,Jakob Flores,Decatur,106.82,115.67,83.91,129.27,328.85,Single-ply,SBD,M
Boys,125,1,Colby Murillo,Decatur,116.57,195.04,92.99,174.63,462.66,Single-ply,SBD,M
Boys,125,2,Austin Childs,Iowa Park,112.49,142.88,97.52,147.42,387.82,Single-ply,SBD,M
Boys,125,3,Anderson Ramirez,Decatur,115.89,147.42,86.18,129.27,362.87,Single-ply,SBD,M
Boys,125,4,Keaton Jordan,Decatur,113.4,149.69,88.45,113.4,351.53,Single-ply,SBD,M
Boys,125,DQ,Ethan Moulton,Iowa Park,124.28,,,,,Single-ply,SBD,M
Boys,125+,1,Moses Holmes,Decatur,134.72,167.83,102.06,192.78,462.66,Single-ply,SBD,M
Boys,125+,2,Ernest Ferguson,Wichita Falls City View,137.21,142.88,72.57,145.15,360.61,Single-ply,SBD,M
Boys,,DQ,Royce Vaughn,Wichita Falls City View,,,,,,Single-ply,SBD,M
