Division,Sex,Event,Equipment,WeightClassKg,Name,Best3SquatKg,Best3BenchKg,Best3DeadliftKg,TotalKg,Place
Amateur Open,F,SBD,Multi-ply,75,Inna Yudina,135,85,135,355,1
Amateur Teen 13-15,M,SBD,Multi-ply,90,Vitaliy Garkavenko,220,120,200,540,1
Amateur Teen 16-17,M,SBD,Multi-ply,60,Aleksey Gorniy,190,105,170,465,1
Amateur Teen 18-19,M,SBD,Multi-ply,82.5,Anatoliy Sirkov,200,150,200,550,1
Amateur Teen 18-19,M,SBD,Multi-ply,90,Nikoay Sergeev,320,235,245,800,1
Amateur Teen 18-19,M,SBD,Multi-ply,100,Ivan Morgun,,,,,DQ
Amateur Open,M,SBD,Multi-ply,82.5,Roman Medvedchuk,240,135,245,620,3
Amateur Open,M,SBD,Multi-ply,100,Aleksey Kurkov,205,140,180,525,4
Amateur Open,M,SBD,Multi-ply,125,Artem Stepanenko,325,190,240,755,3
Amateur Open,F,SBD,Raw,52,Olga Negodyuk,90,55,125,270,1
Amateur Open,F,SBD,Raw,52,Evgeniya Evlanova,65,45,90,200,2
Amateur Open,F,SBD,Raw,67.5,Aleksandra Bordunova,90,55,117.5,262.5,2
Amateur Open,F,SBD,Raw,67.5,Juliya Ostapenko,80,50,117.5,247.5,3
Amateur Open,F,SBD,Raw,67.5,Olga Horoshko,85,50,102.5,237.5,4
Amateur Open,F,SBD,Raw,75,Vita Syumak,110,65,130,305,2
Amateur Teen 16-17,F,SBD,Raw,48,Tatiana Redko,85,40,75,200,1
Amateur Master 40-44,F,SBD,Raw,90,Irina Pedoryaka,100,52.5,125,277.5,1
Amateur Master 50-54,F,SBD,Raw,75,Svetlana Sheremenko,102.5,62.5,132.5,297.5,1
Amateur Teen (16-17),M,SBD,Raw,67.5,Dmitry Zheverda,102.5,70,135,307.5,1
Amateur Teen (16-17),M,SBD,Raw,82.5,Sergey Strekalov,210,150,250,610,1
Amateur Teen (18-19),M,SBD,Raw,67.5,Andrey Maslyak,140,115,170,425,1
Amateur Teen (18-19),M,SBD,Raw,110,Igor Siviy,230,155,280,665,1
Amateur Junior,M,SBD,Raw,75,Ivan Lyutik,190,135,200,525,1
Amateur Junior,M,SBD,Raw,100,Andrey Gonchurak,245,155,260,660,1
Amateur Junior,M,SBD,Raw,100,Vadim Lenkov,170,160,210,540,2
Amateur Open,M,SBD,Raw,67.5,Vladimir Rozhdaikin,160,107.5,180,447.5,1
Amateur Open,M,SBD,Raw,75,Igor Prus,180,135,190,505,3
Amateur Open,M,SBD,Raw,82.5,Rinat Zaripov,227.5,157.5,260,645,2
Amateur Open,M,SBD,Raw,100,Mikhail Slepchenko,290,190,290,770,2
Amateur Open,M,SBD,Raw,100,Yuriy Chernyavskiy,195,152.5,220,567.5,4
Amateur Open,M,SBD,Raw,110,Andrey Lamickiy,220,175,250,645,2
Amateur Open,M,SBD,Raw,125,Artem Prisyazhny,220,170,280,670,3
Amateur Master 45-49,M,SBD,Raw,100,Sergey Kolesnik,185,140,225,550,1
Amateur Master 45-49,M,SBD,Raw,125,Aleksander Kalkutin,190,,,,DQ
Amateur Master 50-54,M,SBD,Raw,82.5,Anatoly Cherednichenko,155,95,200,450,1
Amateur Master 60-64,M,SBD,Raw,90,Valery Litovchenko,152.5,75,177.5,405,1
Amateur Master 65-69,M,SBD,Raw,75,Vladimir Vasilenko,110,65,152.5,327.5,2
Amateur Military,M,SBD,Raw,90,Vitaly Vovk,215,160,250,625,1
Open,F,SBD,Multi-ply,56,Svetlana Dergaputskaya,140,95,130,365,1
Junior,M,SBD,Multi-ply,75,Artem Konik,330,215,280,825,1
Junior,M,SBD,Multi-ply,82.5,Aleksey Melnik,280,210,260,750,1
Junior,M,SBD,Multi-ply,90,Aleksander Chumak,260,170,240,670,1
Junior,M,SBD,Multi-ply,90,Anton Galaguz,315,205,,,DQ
Junior,M,SBD,Multi-ply,125,Arsen Doga,320,190,265,775,1
Open,M,SBD,Multi-ply,67.5,Igor Povazhnyuk,285,170,225,680,1
Open,M,SBD,Multi-ply,67.5,Andrey Dyatlov,260,187.5,230,677.5,2
Open,M,SBD,Multi-ply,82.5,Konstantin Chernov,315,235,250,800,1
Open,M,SBD,Multi-ply,82.5,Andrey Chumak,260,187.5,252.5,700,2
Open,M,SBD,Multi-ply,90,Dmitry Derevyanko,330,232.5,290,852.5,1
Open,M,SBD,Multi-ply,100,Nikolay Kuznecov,340,220,290,850,1
Open,M,SBD,Multi-ply,100,Aleksander Timofeev,360,200,275,835,2
Open,M,SBD,Multi-ply,100,Vladimir Grammatik,300,210,280,790,3
Open,M,SBD,Multi-ply,110,Vladimir Rozhansky,390,225,315,930,1
Open,M,SBD,Multi-ply,125,Evgeniy Yarimbash,410,330,360,1100,1
Open,M,SBD,Multi-ply,125,Denis Dubrovkiy,340,230,320,890,2
Master 40-44,M,SBD,Multi-ply,100,Ruslan Kulak,310,120,270,700,1
Master 45-49,M,SBD,Multi-ply,100,Viktor Babenko,240,180,220,640,1
Master 50-54,M,SBD,Multi-ply,90,Vladimir Chernobay,265,90,242.5,597.5,1
Open,F,SBD,Raw,67.5,Marina Ovcharenko,105,75,125,305,1
Open,F,SBD,Raw,75,Irina Petrovich,140,115,192.5,447.5,1
Junior,F,SBD,Raw,67.5,Dariya Babkina,100,70,117.5,287.5,1
Junior,M,SBD,Raw,82.5,Grigory Avakyan,235,125,260,620,1
Junior,M,SBD,Raw,82.5,Taras Ganzha,200,140,220,560,2
Junior,M,SBD,Raw,125,Kiril Komnatniy,250,170,275,695,1
Open,M,SBD,Raw,75,Andrey Yarmola,230,155,260,645,1
Open,M,SBD,Raw,75,Vadim Aliev,190,140,240,570,2
Open,M,SBD,Raw,82.5,Konstantin Chernov,225,180,260,665,1
Open,M,SBD,Raw,90,Viktor Galaguz,265,212.5,300,777.5,1
Open,M,SBD,Raw,90,Denis Fitkevich,275,195,270,740,2
Open,M,SBD,Raw,100,Anton Obodovsky,330,195,330,855,1
Open,M,SBD,Raw,100,Sergey Stupin,230,172.5,270,672.5,3
Open,M,SBD,Raw,100,Maksim Malik,280,,,,DQ
Open,M,SBD,Raw,110,Vadim Lozhechkin,300,217.5,315,832.5,1
Open,M,SBD,Raw,125,Dmitry Petrenko,280,180,275,735,1
Open,M,SBD,Raw,125,Dmitry Zhvaviy,240,200,270,710,2
Open,M,SBD,Raw,140,Aleksey Grin,330,250,322.5,902.5,1
Master 40-44,M,SBD,Raw,90,Vyacheslav Kravchenko,250,120,300,670,1
Master 50-54,M,SBD,Raw,90,Yury Kulikov,150,115,190,455,1
Master 50-54,M,SBD,Raw,100,Sergey Denisov,190,135,205,530,1
Master 55-59,M,SBD,Raw,75,Sergey Bobkov,150,100,150,400,1
Master 55-59,M,SBD,Raw,90,Vladimir Nagalyuk,160,90,190,440,1
Master 65-69,M,SBD,Raw,75,Viktor Glushenko,162.5,115,182.5,460,1
Master 65-69,M,SBD,Raw,82.5,Vladimir Manchuk,140,110,140,390,1
Master 70-74,M,SBD,Raw,82.5,Aleksander Loginov,125,70,160,355,1
Amateur Teen 18-19,M,B,Multi-ply,60,Aleksey Gorniy,,112.5,,112.5,1
Amateur Teen 18-19,M,B,Multi-ply,90,Nikolay Sergeev,,240,,240,1
Amateur Teen 18-19,M,B,Multi-ply,110,Ivan Morgun,,200,,200,1
Amateur Open,M,B,Multi-ply,90,Vladimir Migas,,210,,210,1
Amateur Open,M,B,Multi-ply,100,Valeriy Kurochkin,,250,,250,2
Amateur Open,M,B,Multi-ply,125,Aleksander Shwab,,200,,200,2
Amateur Master 45-49,M,B,Multi-ply,100,Vladimir Chigirinskiy,,155,,155,1
Amateur Open,F,B,Raw,60,Irina Vorobeva,,85,,85,1
Amateur Open,F,B,Raw,60,Marina Saltanova,,50,,50,2
Amateur Open,F,B,Raw,75,Vita Syumak,,67.5,,67.5,2
Amateur Master 50-54,F,B,Raw,75,Nataliya Glebova,,60,,60,1
Amateur Teen 18-19,M,B,Raw,52,Oleg Gorbunov,,122.5,,122.5,1
Amateur Teen 18-19,M,B,Raw,67.5,Andrey Maslyak,,115,,115,1
Amateur Teen 18-19,M,B,Raw,67.5,Dmitriy Koval,,112.5,,112.5,2
Amateur Teen 18-19,M,B,Raw,75,Oleg Zinchenko,,115,,115,1
Amateur Teen 18-19,M,B,Raw,100,Kamryan Lumdze,,180,,180,1
Amateur Teen 18-19,M,B,Raw,100,Vadim Lenkov,,165,,165,2
Amateur Junior,M,B,Raw,60,Anton Gaidaenko,,140,,140,1
Amateur Junior,M,B,Raw,75,Igor Bronickiy,,130,,130,2
Amateur Junior,M,B,Raw,75,David Pkin,,125,,125,3
Amateur Junior,M,B,Raw,82.5,Yuriy Macyuk,,130,,130,3
Amateur Junior,M,B,Raw,100,Mikhail Krotov,,162.5,,162.5,1
Amateur Junior,M,B,Raw,100,Peter Marinyuk,,140,,140,2
Amateur Open,M,B,Raw,56,Nikolay Pedorenko,,125,,125,1
Amateur Open,M,B,Raw,60,Iskander Sejtumerov,,115,,115,1
Amateur Open,M,B,Raw,67.5,Yuriy Emec,,125,,125,3
Amateur Open,M,B,Raw,67.5,Viktor Balika,,120,,120,4
Amateur Open,M,B,Raw,90,Oleg Hristoforov,,182.5,,182.5,3
Amateur Open,M,B,Raw,100,Yuriy Vitrenyuk,,175,,175,4
Amateur Open,M,B,Raw,110,Oleg Plotnikov,,205,,205,3
Amateur Open,M,B,Raw,110,Dmitriy Garkusha,,200,,200,5
Amateur Open,M,B,Raw,125,Oleg Afanasiev,,175,,175,4
Amateur Master 40-44,M,B,Raw,90,Vitaliy Pulin,,155,,155,2
Amateur Master 40-44,M,B,Raw,110,Aleksander Semenyuk,,157.5,,157.5,2
Amateur Master 40-44,M,B,Raw,110,Vladimir Matviec,,155,,155,3
Amateur Master 40-44,M,B,Raw,125,Aleksander Kalkutin,,170,,170,2
Amateur Master 45-49,M,B,Raw,75,Viktor Oshurkevich,,105,,105,1
Amateur Master 45-49,M,B,Raw,90,Vladimir Chigirinskiy,,132.5,,132.5,2
Amateur Master 45-49,M,B,Raw,100,Nikolay Naumenko,,100,,100,2
Amateur Master 45-49,M,B,Raw,110,Yuriy Eleva,,130,,130,1
Amateur Master 45-49,M,B,Raw,125,Pavel Celyurik,,207.5,,207.5,1
Amateur Master 50-54,M,B,Raw,110,Andrey Glebov,,135,,135,1
Amateur Master 55-59,M,B,Raw,82.5,Aleksander Nehoroshev,,110,,110,1
Amateur Master 55-59,M,B,Raw,125,Aleksander Sinichenkov,,110,,110,1
Amateur Master 65-69,M,B,Raw,100,Vladimir Korshunov,,142.5,,142.5,1
Amateur Military,M,B,Raw,75,Evgeniy Medved,,100,,100,1
Amateur Military,M,B,Raw,90,Grigoriy Mirishnechenko,,117.5,,117.5,2
Amateur Military,M,B,Raw,100,Aleksander Terzi,,152.5,,152.5,1
Open,F,B,Multi-ply,82.5,Nataliya Kopilova,,160,,160,1
Junior,M,B,Multi-ply,90,Genadiy Yazev,,155,,155,1
Open,M,B,Multi-ply,67.5,Viktor Piskunov,,200,,200,1
Open,M,B,Multi-ply,67.5,Stanislav Marochko,,,,,DQ
Open,M,B,Multi-ply,75,Andrey Dyatlov,,200,,200,1
Open,M,B,Multi-ply,100,Sergey Didovik,,275,,275,1
Open,M,B,Multi-ply,100,Sergey Burik,,192.5,,192.5,3
Open,M,B,Multi-ply,125,Stanislav Nikonaenko,,265,,265,1
Open,M,B,Multi-ply,125,Dmitriy Zhvaviy,,,,,DQ
Master 40-44,M,B,Multi-ply,110,Andrey Gimbarov,,210,,210,1
Master 45-49,M,B,Multi-ply,67.5,Leonid Sorokin,,110,,110,1
Master 45-49,M,B,Multi-ply,90,Igor Shubin,,140,,140,1
Master 45-49,M,B,Multi-ply,125,Pavel Mogilnikov,,252.5,,252.5,1
Master 45-49,M,B,Multi-ply,140,Konstantin Golubev,,240,,240,1
Master 50-54,M,B,Multi-ply,110,Evgeniy Kurdimov,,195,,195,1
Open,F,B,Raw,48,Anastasia Pavlova,,47.5,,47.5,1
Open,F,B,Raw,67.5,Olesya Grinenko,,95,,95,1
Open,F,B,Raw,75,Irina Petrovich,,117.5,,117.5,1
Open,F,B,Raw,90,Nataliya Kopilova,,117.5,,117.5,1
Junior,M,B,Raw,75,Aleksey Mihailyuk,,150,,150,1
Junior,M,B,Raw,82.5,Roman Shportko,,225,,225,1
Junior,M,B,Raw,82.5,Evgeny Menesenko,,165,,165,2
Junior,M,B,Raw,110,Yaroslav Bogdan,,180,,180,1
Open,M,B,Raw,67.5,Andrey Babinchuk,,170,,170,1
Open,M,B,Raw,67.5,Stanislav Marochko,,137.5,,137.5,2
Open,M,B,Raw,75,Sergey Maslyuchenko,,172.5,,172.5,1
Open,M,B,Raw,90,Nikolay Sanin,,212.5,,212.5,1
Open,M,B,Raw,90,Aleksander Sherbakov,,210,,210,2
Open,M,B,Raw,90,Dmitry Lomejko,,180,,180,4
Open,M,B,Raw,90,Mikhail Shved,,80,,80,5
Open,M,B,Raw,100,Sergey Didovik,,210,,210,1
Open,M,B,Raw,100,Valery Nikitchenko,,180,,180,3
Open,M,B,Raw,100,Konstantin Pushkaerv,,190,,190,2
Open,M,B,Raw,110,Yaroslav Dunay,,220,,220,1
Open,M,B,Raw,110,Maxim Gerasimov,,210,,210,2
Open,M,B,Raw,110,Aleksander Muha,,205,,205,4
Open,M,B,Raw,125,Viktor Mima,,205,,205,1
Open,M,B,Raw,125,Vladimir Vasilevsky,,202.5,,202.5,2
Open,M,B,Raw,125,Sergey Gus,,190,,190,3
Open,M,B,Raw,125,Viktor Shorohov,,160,,160,5
Open,M,B,Raw,140,Andrey Grin,,247.5,,247.5,1
Master 40-44,M,B,Raw,90,Vyacheslav Gorbunov,,160,,160,1
Master 40-44,M,B,Raw,110,Nikolay Kornienko,,210,,210,1
Master 40-44,M,B,Raw,125,Viktor Bilik,,182.5,,182.5,1
Master 45-49,M,B,Raw,90,Sergey Ismagilov,,175,,175,1
Master 45-49,M,B,Raw,100,Nikolay Samonov,,150,,150,1
Master 45-49,M,B,Raw,125,Pavel Mogilnikov,,202.5,,202.5,2
Master 50-54,M,B,Raw,90,Yury Kulikov,,117.5,,117.5,1
Master 50-54,M,B,Raw,100,Evgeny Kurudimov,,130,,130,1
Master 55-59,M,B,Raw,75,Sergey Pismenniy,,105,,105,1
Master 55-59,M,B,Raw,75,Sergey Bobkov,,100,,100,2
Master 65-69,M,B,Raw,75,Viktor Glushenko,,117.5,,117.5,1
Master 65-69,M,B,Raw,82.5,Yury Shamray,,107.5,,107.5,1
Master 70-74,M,B,Raw,82.5,Vladimir Manchuk,,105,,105,1
Military,M,B,Raw,90,Aleksey Soborov,,130,,130,1
