Name,WeightClassKg,BodyweightKg,Best3SquatKg,Best3BenchKg,Best3DeadliftKg,TotalKg,Place,Event,Equipment,Sex
Stephen Higgins,75,75,175,135,205,515,1,SBD,Single-ply,M
Jim Ambrose,75,72,185,135,240,560,2,SBD,Single-ply,M
George Verikios,110,105.95,250,160,240,650,1,SBD,Single-ply,M
Ziad Jnied,100,94.55,,225,,225,1,B,Single-ply,M
Bradley Cope,110,105.55,,210,,210,1,B,Single-ply,M
