April 17,2011               UPA Nationals- Sunday-Lb Results
                                                                                                 Best                                 Best     Sub     Deadlift   Deadlift   Deadlift    Best                     Coeff
          Name              Age    Div    BWt      WtCls   Schwartz   Squat 1 Squat 2 Squat 3          Bench 1   Bench 2 Bench 3                                                                   PL Total                Pl-Div-WtCl           Team
                                                                                                Squat                                Bench     Total     1          2          3        Deadlift                  Score
Phil Knepper                19     M-T3   146.83   148.8   0.7347 358.25 391.32 -402.34         391.32 209.44    231.48    242.51    242.51   633.83   369.27     402.34     418.87     418.87        1052.7       477.5    1-M-T3-67.5        Carpenter
Jordan Lentz                19     M-T3   161.82   165.3    0.676 413.36 446.43 462.97          462.97 275.58    303.13    -308.64   303.13    766.1    429.9     473.99     501.55     501.55      1267.645       388.7     1-M-T3-75            NIP
Tom Kallas (T)              18     M-T3   158.73   165.3   0.6867 479.5 -512.57 -501.55          479.5 225.97    253.53    -275.58   253.53   733.03   468.48     -501.55    501.55     501.55      1234.576     384.552     2-M-T3-75       Zenzen Barbell
Spencer Behne               19     M-T3   175.93   181.9   0.6341 418.87 451.94 479.5            479.5 248.02    264.55     -286.6   264.55   744.05    479.5     523.59     -551.15    523.59      1267.645    364.6075    1-M-T3-82.5
Tyler Scott                 18     M-T3   211.86   220.5   0.5645 374.78 413.36 -446.43         413.36 270.06    308.64    325.18    325.18   738.54   451.94     507.06     534.62     534.62     1273.1565   325.99875    1-M-T3-100        Powercorps
Chris Hickson               19     M-T3   239.86   242.5    0.538 584.22 -633.82 633.82         633.82 292.11    -319.67      0      292.11   925.93   705.47     -804.68    -804.68    705.47      1631.404      398.12    1-M-T3-110          Frantz
Daniel Rega                 17    M-T2T   147.27   148.8   0.7327 198.41 264.55 -341.71         264.55 187.39    209.44    220.46    220.46   485.01   314.16     374.78     402.34     402.34      887.3515   294.91175   1-M-T2T-67.5       Powercorps
DJ Nelson                   17     M-T2   207.23   220.5    0.571 374.78 391.32 -413.36         391.32 242.51    264.55    275.58    275.58   666.89   424.39     446.43     462.97     462.97     1129.8575    292.6375    1-M-T2-100        Powercorps
John Walker                 15     M-T1   130.95   132.3   0.8213 214.95 225.97 231.48          231.48 -214.95   220.46    231.48    231.48   462.97   242.51     275.58     303.13     303.13      766.0985   285.40175     1-M-T1-60
Austin Breunig              15     M-T1   136.46   148.8   0.8006 286.6 314.16 325.18           325.18 159.83    170.86    181.88    181.88   507.06   270.06     297.62     308.64     308.64       815.702     296.222    1-M-T1-67.5       Powercorps
Sam Wilson                  15     M-T1   135.36   148.8    0.794 209.44 220.46 225.97          225.97 148.81    154.32    -170.86   154.32   380.29   225.97     236.99     248.02     248.02       628.311      226.29    2-M-T1-67.5       Powercorps
Sam Fuentes                 14     M-T1   191.36   198.4   0.5986 264.55 286.6 -314.16           286.6 187.39    203.93    214.95    214.95   501.55   275.58     303.13     -325.18    303.13       804.679     218.489     1-M-T1-90        Powercorps
Devin Keenan                13     M-T1    190.7   198.4     0.6  198.41 214.95 231.48          231.48 154.32    -165.35   -170.86   154.32   385.81   275.58     -303.13    303.13     303.13      688.9375       187.5     2-M-T1-90        Powercorps
Anthony Hernandez (A)       20     M-JT   214.95   220.5   0.5605 523.59 545.64 573.2            573.2  286.6    308.64    319.67    319.67   892.86   523.59     567.68     600.75     600.75     1493.6165   379.73875    1-M-JT-100    Rockford Powerlifting
Josh Nilsen                 20     M-J    164.68   165.3   0.6666 391.32 -435.41 -435.41        391.32 264.55    303.13    -319.67   303.13   694.45   402.34     457.45     -501.55    457.45     1151.9035    348.2985      1-M-J-75           Frantz
Bobby Hickson               21     M-J    180.34   181.9    0.623 292.11 341.71 363.76          341.71 143.3     154.32       0      154.32   496.04   347.22     391.32     -424.39    391.32      887.3515    250.7575     1-M-J-82.5          Frantz
Dave Nelson                 22     M-J    197.97   198.4   0.5861 562.17 -578.71 578.71         578.71 352.74    374.78    -391.32   374.78   953.49   567.68     600.75     -628.31    600.75      1554.243    413.2005      1-M-J-90            NIP
Josh Lentz                  23     M-J    194.23   198.4    0.593 512.57 556.66 -578.71         556.66 385.81    407.85    -424.39   407.85   964.51   501.55     -540.13    -540.13    501.55      1466.059     394.345      2-M-J-90            NIP
Kyle Thompson               23     M-J    219.14   220.5   0.5555 462.97 512.57 523.59          523.59 363.76    402.34    413.36    413.36   936.96   518.08     551.15      573.2      573.2      1510.151    380.5175     1-M-J-100            NIP
Anthony Hernandez           20     M-J    214.95   220.5   0.5605 523.59 545.64 573.2            573.2  286.6    308.64    319.67    319.67   892.86   523.59     567.68     600.75     600.75     1493.6165   379.73875     2-M-J-100    Rockford Powerlifting
Jake Monroe                 23     M-J    199.74   220.5    0.583  479.5 -518.08 507.06         507.06 264.55     286.6    -303.13    286.6   793.66   545.64     -600.75    600.75     600.75     1394.4095    368.7475     3-M-J-100
Michael Mago                23     M-J    201.28   220.5   0.5804 473.99 512.57 -518.08         512.57 352.74    369.27    402.34    402.34   914.91   418.87     457.45     -485.01    457.45     1372.3635     361.299     4-M-J-100
Dom LaFace                  21     M-J    215.39   220.5   0.5599 429.9 462.97 -473.99          462.97 253.53     286.6    297.62    297.62   760.59   418.87     451.94     501.55     501.55     1262.1335   320.54275     5-M-J-100         Carpenter
Eric Lilliebridge           21     M-J    260.36   275.6   0.5287 727.52 766.1    -815.7         766.1 440.92    473.99    -512.57   473.99   1240.1   683.43     727.52     777.12     777.12      2017.209    483.7605     1-M-J-125          Frantz            *Raw Best Lifter
Matthew Chamberlin          23     M-J    272.71   275.6   0.5228 501.55 534.62 545.64          545.64 314.16    341.71    352.74    352.74   898.37   507.06     545.64     567.68     567.68      1466.059     347.662     2-M-J-125
Thomas Drake                54    M-M4T   297.84   308.6   0.5089 485.01 518.08 534.62          534.62 374.78    -396.83   -396.83   374.78    909.4    529.1      573.2     -589.73     573.2     1482.5935   342.23525   1-M-M4T-140      Strength Beyond
Mike Wagner                 45    M-M3T   238.98   242.5   0.5385 507.06 534.62 567.68          567.68 303.13     336.2    363.76    363.76   931.44   507.06     545.64     567.68     567.68      1499.128      366.18   1-M-M3T-110        Powercorps
Michael Supilowski          49    M-M3    219.36   220.5   0.5553 512.57 529.1 545.64           545.64 336.2     352.74    363.76    363.76    909.4    622.8     655.87     -666.89    655.87      1565.266     394.263    1-M-M3-100
Roger Hennigar              47    M-M3    213.85   220.5   0.5619 -485.01 485.01 501.55         501.55 314.16    341.71    -352.74   341.71   843.26   473.99     507.06      529.1      529.1     1372.3635   349.78275    2-M-M3-100            NIP
Martin Day                  40    M-M2T   273.15   275.6   0.5239 396.83 413.36 435.41          435.41 253.53    270.06    281.09    281.09    716.5   473.99      -529.1     -529.1    473.99      1190.484     282.906   1-M-M2T-125
Mark Willing                43    M-M2    230.82   242.5   0.5443 429.9 496.04 529.1             529.1 341.71    374.78    -396.83   374.78   903.89   518.08      -573.2     573.2      573.2      1477.082     364.681    1-M-M2-110
Francisco Lagunas           36    M-M1T   181.22   181.9   0.6209 473.99 -512.57 540.13         540.13 363.76    391.32    -402.34   391.32   931.44   462.97     507.06     540.13     540.13     1471.5705   414.45075   1-M-M1T-82.5   Rockford Powerlifting
Jason Schmid                33    M-M1T   216.93   220.5   0.5581 485.01 -507.06 501.55         501.55 275.58     286.6    -297.62    286.6   788.14   540.13     562.17      -573.2    562.17     1350.3175   341.83625   1-M-M1T-100
Ernie Lilliebridge          39    M-M1    294.09   308.6   0.5109 683.43 716.5 -738.54           716.5 462.97    501.55       0      501.55    1218       0          0       501.55     501.55      1719.588     398.502    1-M-M1-140           Frantz
Joshua Anderson (M1)        33    M-M1    294.76   308.6   0.5106 -589.73 589.73 -639.33        589.73 352.74       0         0      352.74   942.47   551.15     600.75        0       600.75       1543.22      357.42    2-M-M1-140    Rockford Powerlifting
Theo Plothe                 36    M-M1    284.17   308.6   0.5175 248.02 264.55 314.16          248.02 148.81    165.35    -181.88   165.35   413.36   -347.22    374.78     402.34     402.34       815.702     191.475    3-M-M1-140      Zenzen Barbell
AJ Knepper                  27    M-ORT   163.58   165.3   0.6701 374.78 402.34 424.39          424.39 214.95    225.97    236.99    236.99   661.38   440.92     473.99     501.55     501.55     1162.9265   353.47775   1-M-ORT-75          Carpenter
Adam Shalley                26    M-ORT   220.02   220.5   0.5545 418.87 -473.99 473.99         473.99 286.6     319.67    352.74    352.74   826.73   462.97     501.55     -540.13    501.55     1328.2715   334.08625   1-M-ORT-100
Dominic Morais              25    M-ORT   217.81   220.5    0.557 363.76 396.83 -402.34         396.83 286.6     314.16    -330.69   314.16   710.98   385.81     418.87     446.43     446.43      1157.415     292.425   2-M-ORT-100
Matt Vinopal                35    M-ORT   228.18   242.5   0.5465 523.59 562.17 600.75          600.75 391.32    413.36    424.39    424.39   1025.1   606.27     633.82     -655.87    633.82     1658.9615   411.24125   1-M-ORT-110     Wisconsin Barbell
Matthew Swanson             32    M-ORT   233.25   242.5   0.5424 512.57 551.15 573.2            573.2 297.62       0         0      297.62   870.82   518.08     556.66     578.71     578.71     1449.5245     356.628   2-M-ORT-110      Zenzen Barbell
Matthew Lynch               29    M-ORT   237.88   242.5   0.5407 396.83 -424.39 -424.39        396.83 330.69    -369.27   -369.27   330.69   727.52   407.85        0          0       407.85      1135.369    278.4605   3-M-ORT-110    Rockford Powerlifting
William Barnes              33    M-ORT   402.12   SHW     0.4643 479.5 523.59 -562.17          523.59 352.74    374.78    -402.34   374.78   898.37   -551.15    567.68     -606.27    567.68      1466.059    308.7462   1-M-ORT-SHW      Hoffman Barbell
Tom Kallas                  18     MOR    158.73   165.3   0.6867 479.5 -512.57 -501.55          479.5 225.97    253.53    -275.58   253.53   733.03   468.48     -501.55    501.55     501.55      1234.576     384.552    1-MOR-75        Zenzen Barbell
Josh Nilsen (open)          20     MOR    164.68   165.3   0.6666 391.32 -435.41 -435.41        391.32 264.55    303.13    -319.67   303.13   694.45   402.34     457.45     -501.55    457.45     1151.9035    348.2985    2-MOR-75             Frantz
Nick Skridla                32     MOR    162.48   165.3   0.6737 236.99 325.18     0           325.18 225.97       0         0      225.97   551.15   451.94     -507.06    -507.06    451.94      1003.093    306.5335    3-MOR-75      Rockford Powerlifting
Luke Kutsch                 23     MOR    179.23   181.9   0.6257 374.78 413.36 440.92          440.92 203.93    214.95    225.97    225.97   666.89    429.9     468.48     501.55     501.55      1168.438     331.621   1-MOR-82.5
Kyle Messerly               25     MOR    196.43   198.4   0.5889 633.82 -705.47 705.47         705.47 330.69    347.22    -358.25   347.22   1052.7   -584.22    584.22     611.78     611.78      1664.473    444.6195    1-MOR-90
Michael Supilowski (open)   49     MOR    219.36   220.5   0.5553 512.57 529.1 545.64           545.64 336.2     352.74    363.76    363.76    909.4    622.8     655.87     -666.89    655.87      1565.266     394.263   1-MOR-100
Chris Hickson (open)        19     MOR    239.86   242.5    0.538 584.22 -633.82 633.82         633.82 292.11    -319.67      0      292.11   925.93   705.47     -804.68    -804.68    705.47      1631.404      398.12   1-MOR-110             Frantz
Alex Camacho                24   MOR   237.66   242.5   0.5393 518.08 562.17    606.27    606.27 347.22    374.78   -391.32   374.78   981.05    529.1   578.71 600.75 600.75 1581.8005 386.94775   2-MOR-110       Powercorps
Tim Filus                   29   MOR   236.33   242.5   0.5402 501.55 551.15    -589.73   551.15 352.74    374.78   -402.34   374.78   925.93   501.55   562.17 584.22 584.22 1510.151 370.037      3-MOR-110       Powercorps
Cory Newland                27   MOR   231.92   242.5   0.5434 468.48 490.52    501.55    501.55 275.58    303.13   314.16    314.16    815.7   501.55    529.1 551.15 551.15 1366.852 336.908      4-MOR-110
Eric Lilliebridge (open)    21   MOR   260.36   275.6   0.5287 727.52 766.1      -815.7    766.1 440.92    473.99   -512.57   473.99   1240.1   683.43   727.52 777.12 777.12 2017.209 483.7605     1-MOR-125         Frantz
Jon Jursich                 24   MOR   273.15   275.6   0.5239 507.06 540.13    -562.17   540.13 303.13    352.74   -374.78   352.74   892.86   507.06   540.13 -562.17 540.13 1432.99   340.535    2-MOR-125     Zenzen Barbell
Jesse Brill                 30   MOR   250.22   275.6   0.5328 473.99 496.04    -523.59   496.04 369.27    385.81   -413.36   385.81   881.84   451.94   501.55 529.1    529.1 1410.944 340.992     3-MOR-125     Hoffman Barbell
Robert Holliday             24   MOR    250     275.6   0.5328 473.99 512.57       0      512.57 248.02    275.58   297.62    297.62   810.19   462.97   501.55 518.08 518.08 1328.2715 321.012     4-MOR-125
Ernie Lilliebridge (open)   39   MOR   294.09   308.6   0.5109 683.43 716.5     -738.54    716.5 462.97    501.55      0      501.55    1218       0        0   501.55 501.55 1719.588 398.502      1-MOR-140          Frantz
Joshua Anderson             33   MOR   294.76   308.6   0.5106 -589.73 589.73   -639.33   589.73 352.74      0         0      352.74   942.47   551.15   600.75    0    600.75 1543.22    357.42    2-MOR-140   Rockford Powerlifting
Wiley Rung                  29   MOR   292.11   308.6    0.512 485.01 501.55    501.55    501.55 -369.27   385.81   402.34    402.34   903.89   485.01   507.06 540.13 540.13 1444.013    335.36    3-MOR-140       Powercorps
5-Mar-11         UPA IA & Midwest PL Championship - DeadLift Only
                                 BWt     BWt               Deadlift Deadlift Deadlift    Best        Coeff
       Name      Age     Div                    Schwartz                                                      Pl-Div-WtCl    Tm Pts     Team
                                 (Lb)    (Lb)                 1        2        3       Deadlift     Score
Eddie Angstrom   69    MM6R-AD    179    181    0.6262      165      177.5      190       190       118.978 1-MM6R-AD-82.5     7
Ricky Dexter     55    MM4R-AD   195.8   198    0.5901     162.5     177.5     192.5     192.5     113.59425 1-MM4R-AD-90      7
Marcus DeVore    23      MJ      272.5   275     0.523     272.5      290     -317.5      290        151.67    1-MJ-125        7      Team Anvil
5-Mar-11            UPA IA & Midwest PL Championship Full Power
                                   BWt     WtCls                                         Best                                   Best     Sub   Deadlift Deadlift Deadlift    Best                    Coeff
       Name         Age    Div                     Schwartz   Squat 1 Squat 2 Squat 3            Bench 1 Bench 2 Bench 3                                                               PL Total                Pl-Div-WtCl     Tm Pts          Team
                                   (Lb)    (Lb)                                         Squat                                  Bench    Total     1       2        3        Deadlift                 Score
Steve Rieger        44     MM1R    179.5    181    0.6251 319.67 341.71 374.78          374.78   -308.64   -330.69   -330.69      0       0     496.04 529.1 551.15         551.15         0           0            0            0          Team Weber
Mark Willing        43     MM1R    230.2    242    0.5448 402.34 451.94 479.5            479.5    319.67    352.74   -380.29   352.74   832.24 501.55 540.13 573.2           573.2     1405.4325     347.31    1-MM1R-110        7
Jacob Stratton      23     MJR      194     198    0.5935 485.01 512.57 551.15          551.15    347.22   -363.76   -363.76   347.22   898.37 501.55 518.08 -551.15        518.08     1416.4555   381.32375    1-MJR -90        7           Team Anvil
Devin Denson        18     MT3R    179.5    181    0.6251 -380.29 -380.29 -380.29          0     -242.51   -242.51   -242.51      0       0       0        0        0          0           0           0            0            0
Joe Notsch          17     MT2R    223.1    242    0.5513 -462.97 -462.97 -462.97          0      -286.6    -286.6    -286.6      0       0       0        0        0          0           0           0            0            0
Dustin Leibfried    24    MOR-AD   178.6    181    0.6273 501.55 -518.08 523.59         523.59    314.16     336.2   -347.22    336.2   859.79 -551.15 -600.75 600.75       600.75     1460.5475   415.58625   1-MOR-AD-82.5     7      Carpenter Powerlifting *Raw Best Lifter
Bob Weber           43    MOR-AD    306     308    0.5047 606.27 -650.36 -650.36        606.27    407.85   -451.94      0      407.85   1014.1 606.27      0        0       606.27      1620.381    370.9545   1-MOR-AD-140      7          Team Weber
Kyle Nadrchal       28    MO-AD    215.2    220    0.5602 584.22 639.33 677.91          677.91   -446.43    446.43   -462.97   446.43   1124.3 468.48 501.55 523.59         523.59     1647.9385    418.7495   1-MO-AD-100       7          Big Iron Gym
Robert Holliday     24     MOR     240.7    242    0.5375 418.87 462.97 485.01          485.01    225.97    253.53    275.58   275.58   760.59 418.87 462.97 -501.55        462.97      1223.553    298.3125    1-MOR-110        7
Luke Tigges         31     MOR     270.3    275    0.5242 556.66 -584.22 584.22         584.22    446.43    468.48    -479.5   468.48   1052.7 584.22 606.27 628.31         628.31     1681.0075    399.7025    1-MOR-125        7      Carpenter Powerlifting
Eric Ficek          25     MOR     340.4   SHW     0.4885 402.34 440.92 501.55          501.55    253.53    259.04   -270.06   259.04   760.59 418.87 451.94 485.01         485.01      1245.599    276.0025   1-MOR-SHW         7
Michael Neuendorf   20      MJ     272.5    275     0.523 705.47 760.59 804.68          804.68    545.64   -556.66    556.66   556.66   1361.3 545.64 589.73 622.8           622.8      1984.14      470.7       1-MJ-125        7          Big Iron Gym
Heath Atwell        24      MO     194.4    198    0.5926 402.34 418.87 -440.92         418.87    225.97   -236.99    236.99   236.99   655.87 402.34 440.92 -479.5         440.92     1096.7885    294.8185     1-MO-90         7
Josh Edwards        30      MO     270.7    275     0.524 738.54 -788.14 788.14         788.14    639.33   -666.89   -666.89   639.33   1427.5 584.22 639.33 -666.89        639.33     2066.8125     491.25      1-MO-125        7      Carpenter Powerlifting *Equipped Best Lifter
Kevin Frey          32      MO     281.7    308    0.5176 628.31 672.4 705.47           705.47    584.22    617.29   -633.82   617.29   1322.8 523.59 562.17 584.22         584.22      1906.979    447.724      1-MO-140        7
5-Mar-11        UPA IA & Midwest PL Championship - Push/Pull
                            BWt     WtCls                                        Best Deadlift Deadlift Deadlift    Best    Push Pull   Coeff
       Name     Age   Div                   Schwartz   Bench 1 Bench 2 Bench 3                                                                    Pl-Div-WtCl   Tm Pts           Team
                            (Lb)     (Lb)                                       Bench     1       2       3        Deadlift   Total     Score
Jason Weipert   28    MOR   218.7    220     0.556     209.44   225.97 242.51 242.51 418.87 462.97 501.55          501.55    744.0525   187.65    1-MOR-100       7      Carpenter Powerlifting
Brian Lutter    28    MOR   235.5    242    0.5408     303.13   319.67 -336.2 319.67 457.45 473.99 -529.1          473.99    793.656   194.688    1-MOR-110       7
Jim Einertson   28    MOR   255.7    275    0.5305     363.76   380.29 396.83 396.83 473.99 485.01 529.1            529.1    925.932    222.81    1-MOR-125       7
Joe Jolesch     28    MO    224.9    242    0.5495     -429.9    429.9 -457.45 429.9    529.1   573.2 600.75       600.75   1030.6505 256.89125    1-MO-110       7
Lance Barilow   26    MO    259.7    275     0.529     314.16   -325.18 -325.18 314.16 440.92 473.99 -501.55       473.99    788.1445 189.1175     1-MO-125       7
